{
    "dashboard": {
        "calo": {
            "time": "27.07",
            "value": 70
        },
        "bodyChart": {
            "6": {
                "value1": 50,
                "value2": 40
            },
            "7": {
                "value1": 20,
                "value2": 50
            },
            "8": {
                "value1": 60,
                "value2": 40
            },
            "9": {
                "value1": 30,
                "value2": 70
            },
            "10": {
                "value1": 70,
                "value2": 20
            },
            "11": {
                "value1": 25,
                "value2": 76
            },
            "12": {
                "value1": 48,
                "value2": 66
            },
            "1": {
                "value1": 28,
                "value2": 43
            },
            "2": {
                "value1": 50,
                "value2": 40
            },
            "3": {
                "value1": 44,
                "value2": 72
            },
            "4": {
                "value1": 42,
                "value2": 40
            },
            "5": {
                "value1": 61,
                "value2": 10
            }
        }
    },
    "categories": [
        {
            "title": "Morning",
            "sizeIcon": "56px",
            "image": "/images/morning.png"
        },
        {
            "title": "Lunch",
            "sizeIcon": "56px",
            "image": "/images/morning.png"
        },
        {
            "title": "Dinner",
            "sizeIcon": "56px",
            "image": "/images/morning.png"
        },
        {
            "title": "Snack",
            "sizeIcon": "40px",
            "image": "/images/snack.png"
        }
    ],
    "records": [
        {
            "category": "Morning",
            "date": "05.21",
            "image": "/images/m01.png"
        },
        {
            "category": "Lunch",
            "date": "05.21",
            "image": "/images/l01.png"
        },
        {
            "category": "Dinner",
            "date": "05.21",
            "image": "/images/d01.png"
        },
        {
            "category": "Snack",
            "date": "05.21",
            "image": "/images/s01.png"
        },
        {
            "category": "Morning",
            "date": "05.21",
            "image": "/images/m01.png"
        },
        {
            "category": "Lunch",
            "date": "05.21",
            "image": "/images/l02.png"
        },
        {
            "category": "Dinner",
            "date": "05.21",
            "image": "/images/d02.png"
        },
        {
            "category": "Snack",
            "date": "05.21",
            "image": "/images/s02.png"
        },
        {
            "category": "Morning",
            "date": "05.21",
            "image": "/images/m01.png"
        },
        {
            "category": "Lunch",
            "date": "05.21",
            "image": "/images/l01.png"
        },
        {
            "category": "Dinner",
            "date": "05.21",
            "image": "/images/d01.png"
        },
        {
            "category": "Snack",
            "date": "05.21",
            "image": "/images/s01.png"
        },
        {
            "category": "Morning",
            "date": "05.21",
            "image": "/images/m01.png"
        },
        {
            "category": "Lunch",
            "date": "05.21",
            "image": "/images/l02.png"
        },
        {
            "category": "Dinner",
            "date": "05.21",
            "image": "/images/d02.png"
        },
        {
            "category": "Snack",
            "date": "05.21",
            "image": "/images/s02.png"
        },
        {
            "category": "Morning",
            "date": "05.21",
            "image": "/images/m01.png"
        },
        {
            "category": "Lunch",
            "date": "05.21",
            "image": "/images/l01.png"
        },
        {
            "category": "Dinner",
            "date": "05.21",
            "image": "/images/d01.png"
        },
        {
            "category": "Snack",
            "date": "05.21",
            "image": "/images/s01.png"
        },
        {
            "category": "Morning",
            "date": "05.21",
            "image": "/images/m01.png"
        },
        {
            "category": "Lunch",
            "date": "05.21",
            "image": "/images/l02.png"
        },
        {
            "category": "Dinner",
            "date": "05.21",
            "image": "/images/d02.png"
        },
        {
            "category": "Snack",
            "date": "05.21",
            "image": "/images/s02.png"
        }
    ],
    "my-exercise": [
        {
            "title": "家事全般（立位・軽い",
            "time": "10min",
            "calo": "26"
        },
        {
            "title": "家事全般（立位・軽い",
            "time": "10min",
            "calo": "27"
        },
        {
            "title": "家事全般（立位・軽い",
            "time": "10min",
            "calo": "30"
        },
        {
            "title": "家事全般（立位・軽い",
            "time": "10min",
            "calo": "26"
        },
        {
            "title": "家事全般（立位・軽い",
            "time": "10min",
            "calo": "25"
        },
        {
            "title": "家事全般（立位・軽い",
            "time": "10min",
            "calo": "32"
        },
        {
            "title": "家事全般（立位・軽い",
            "time": "10min",
            "calo": "34"
        },
        {
            "title": "家事全般（立位・軽い",
            "time": "10min",
            "calo": "40"
        },
        {
            "title": "家事全般（立位・軽い",
            "time": "10min",
            "calo": "20"
        },
        {
            "title": "家事全般（立位・軽い",
            "time": "10min",
            "calo": "22"
        },
        {
            "title": "家事全般（立位・軽い",
            "time": "10min",
            "calo": "23"
        },
        {
            "title": "家事全般（立位・軽い",
            "time": "10min",
            "calo": "24"
        },
        {
            "title": "家事全般（立位・軽い",
            "time": "10min",
            "calo": "23"
        },
        {
            "title": "家事全般（立位・軽い",
            "time": "10min",
            "calo": "21"
        },
        {
            "title": "家事全般（立位・軽い",
            "time": "10min",
            "calo": "26"
        },
        {
            "title": "家事全般（立位・軽い",
            "time": "10min",
            "calo": "24"
        },
        {
            "title": "家事全般（立位・軽い",
            "time": "10min",
            "calo": "30"
        },
        {
            "title": "家事全般（立位・軽い",
            "time": "10min",
            "calo": "32"
        },
        {
            "title": "家事全般（立位・軽い",
            "time": "10min",
            "calo": "34"
        },
        {
            "title": "家事全般（立位・軽い",
            "time": "10min",
            "calo": "22"
        },
        {
            "title": "家事全般（立位・軽い",
            "time": "10min",
            "calo": "26"
        },
        {
            "title": "家事全般（立位・軽い",
            "time": "10min",
            "calo": "27"
        },
        {
            "title": "家事全般（立位・軽い",
            "time": "10min",
            "calo": "28"
        },
        {
            "title": "家事全般（立位・軽い",
            "time": "10min",
            "calo": "29"
        },
        {
            "title": "家事全般（立位・軽い",
            "time": "10min",
            "calo": "30"
        },
        {
            "title": "家事全般（立位・軽い",
            "time": "10min",
            "calo": "31"
        },
        {
            "title": "家事全般（立位・軽い",
            "time": "10min",
            "calo": "26"
        }
    ],
    "my-diary": [
        {
            "date": "2021.05.21",
            "time": "23:25",
            "content": "私の日記の記録が一部表示されます。テキストテキストテキストテキストテキストテキストテキストテキストテキストテキストテキストテキストテキストテキストテキストテキストテキストテキスト"
        },
        {
            "date": "2021.05.21",
            "time": "23:25",
            "content": "私の日記の記録が一部表示されます。テキストテキストテキストテキストテキストテキストテキストテキストテキストテキストテキストテキストテキストテキストテキストテキストテキストテキスト"
        },
        {
            "date": "2021.05.21",
            "time": "23:25",
            "content": "私の日記の記録が一部表示されます。テキストテキストテキストテキストテキストテキストテキストテキストテキストテキストテキストテキストテキストテキストテキストテキストテキストテキスト"
        },
        {
            "date": "2021.05.21",
            "time": "23:25",
            "content": "私の日記の記録が一部表示されます。テキストテキストテキストテキストテキストテキストテキストテキストテキストテキストテキストテキストテキストテキストテキストテキストテキストテキスト"
        },
        {
            "date": "2021.05.21",
            "time": "23:25",
            "content": "私の日記の記録が一部表示されます。テキストテキストテキストテキストテキストテキストテキストテキストテキストテキストテキストテキストテキストテキストテキストテキストテキストテキスト"
        },
        {
            "date": "2021.05.21",
            "time": "23:25",
            "content": "私の日記の記録が一部表示されます。テキストテキストテキストテキストテキストテキストテキストテキストテキストテキストテキストテキストテキストテキストテキストテキストテキストテキスト"
        },
        {
            "date": "2021.05.21",
            "time": "23:25",
            "content": "私の日記の記録が一部表示されます。テキストテキストテキストテキストテキストテキストテキストテキストテキストテキストテキストテキストテキストテキストテキストテキストテキストテキスト"
        },
        {
            "date": "2021.05.21",
            "time": "23:25",
            "content": "私の日記の記録が一部表示されます。テキストテキストテキストテキストテキストテキストテキストテキストテキストテキストテキストテキストテキストテキストテキストテキストテキストテキスト"
        },
        {
            "date": "2021.05.21",
            "time": "23:25",
            "content": "私の日記の記録が一部表示されます。テキストテキストテキストテキストテキストテキストテキストテキストテキストテキストテキストテキストテキストテキストテキストテキストテキストテキスト"
        },
        {
            "date": "2021.05.21",
            "time": "23:25",
            "content": "私の日記の記録が一部表示されます。テキストテキストテキストテキストテキストテキストテキストテキストテキストテキストテキストテキストテキストテキストテキストテキストテキストテキスト"
        },
        {
            "date": "2021.05.21",
            "time": "23:25",
            "content": "私の日記の記録が一部表示されます。テキストテキストテキストテキストテキストテキストテキストテキストテキストテキストテキストテキストテキストテキストテキストテキストテキストテキスト"
        },
        {
            "date": "2021.05.21",
            "time": "23:25",
            "content": "私の日記の記録が一部表示されます。テキストテキストテキストテキストテキストテキストテキストテキストテキストテキストテキストテキストテキストテキストテキストテキストテキストテキスト"
        },
        {
            "date": "2021.05.21",
            "time": "23:25",
            "content": "私の日記の記録が一部表示されます。テキストテキストテキストテキストテキストテキストテキストテキストテキストテキストテキストテキストテキストテキストテキストテキストテキストテキスト"
        },
        {
            "date": "2021.05.21",
            "time": "23:25",
            "content": "私の日記の記録が一部表示されます。テキストテキストテキストテキストテキストテキストテキストテキストテキストテキストテキストテキストテキストテキストテキストテキストテキストテキスト"
        },
        {
            "date": "2021.05.21",
            "time": "23:25",
            "content": "私の日記の記録が一部表示されます。テキストテキストテキストテキストテキストテキストテキストテキストテキストテキストテキストテキストテキストテキストテキストテキストテキストテキスト"
        },
        {
            "date": "2021.05.21",
            "time": "23:25",
            "content": "私の日記の記録が一部表示されます。テキストテキストテキストテキストテキストテキストテキストテキストテキストテキストテキストテキストテキストテキストテキストテキストテキストテキスト"
        },
        {
            "date": "2021.05.21",
            "time": "23:25",
            "content": "私の日記の記録が一部表示されます。テキストテキストテキストテキストテキストテキストテキストテキストテキストテキストテキストテキストテキストテキストテキストテキストテキストテキスト"
        },
        {
            "date": "2021.05.21",
            "time": "23:25",
            "content": "私の日記の記録が一部表示されます。テキストテキストテキストテキストテキストテキストテキストテキストテキストテキストテキストテキストテキストテキストテキストテキストテキストテキスト"
        },
        {
            "date": "2021.05.21",
            "time": "23:25",
            "content": "私の日記の記録が一部表示されます。テキストテキストテキストテキストテキストテキストテキストテキストテキストテキストテキストテキストテキストテキストテキストテキストテキストテキスト"
        },
        {
            "date": "2021.05.21",
            "time": "23:25",
            "content": "私の日記の記録が一部表示されます。テキストテキストテキストテキストテキストテキストテキストテキストテキストテキストテキストテキストテキストテキストテキストテキストテキストテキスト"
        },
        {
            "date": "2021.05.21",
            "time": "23:25",
            "content": "私の日記の記録が一部表示されます。テキストテキストテキストテキストテキストテキストテキストテキストテキストテキストテキストテキストテキストテキストテキストテキストテキストテキスト"
        },
        {
            "date": "2021.05.21",
            "time": "23:25",
            "content": "私の日記の記録が一部表示されます。テキストテキストテキストテキストテキストテキストテキストテキストテキストテキストテキストテキストテキストテキストテキストテキストテキストテキスト"
        },
        {
            "date": "2021.05.21",
            "time": "23:25",
            "content": "私の日記の記録が一部表示されます。テキストテキストテキストテキストテキストテキストテキストテキストテキストテキストテキストテキストテキストテキストテキストテキストテキストテキスト"
        },
        {
            "date": "2021.05.21",
            "time": "23:25",
            "content": "私の日記の記録が一部表示されます。テキストテキストテキストテキストテキストテキストテキストテキストテキストテキストテキストテキストテキストテキストテキストテキストテキストテキスト"
        },
        {
            "date": "2021.05.21",
            "time": "23:25",
            "content": "私の日記の記録が一部表示されます。テキストテキストテキストテキストテキストテキストテキストテキストテキストテキストテキストテキストテキストテキストテキストテキストテキストテキスト"
        },
        {
            "date": "2021.05.21",
            "time": "23:25",
            "content": "私の日記の記録が一部表示されます。テキストテキストテキストテキストテキストテキストテキストテキストテキストテキストテキストテキストテキストテキストテキストテキストテキストテキスト"
        },
        {
            "date": "2021.05.21",
            "time": "23:25",
            "content": "私の日記の記録が一部表示されます。テキストテキストテキストテキストテキストテキストテキストテキストテキストテキストテキストテキストテキストテキストテキストテキストテキストテキスト"
        },
        {
            "date": "2021.05.21",
            "time": "23:25",
            "content": "私の日記の記録が一部表示されます。テキストテキストテキストテキストテキストテキストテキストテキストテキストテキストテキストテキストテキストテキストテキストテキストテキストテキスト"
        },
        {
            "date": "2021.05.21",
            "time": "23:25",
            "content": "私の日記の記録が一部表示されます。テキストテキストテキストテキストテキストテキストテキストテキストテキストテキストテキストテキストテキストテキストテキストテキストテキストテキスト"
        },
        {
            "date": "2021.05.21",
            "time": "23:25",
            "content": "私の日記の記録が一部表示されます。テキストテキストテキストテキストテキストテキストテキストテキストテキストテキストテキストテキストテキストテキストテキストテキストテキストテキスト"
        },
        {
            "date": "2021.05.21",
            "time": "23:25",
            "content": "私の日記の記録が一部表示されます。テキストテキストテキストテキストテキストテキストテキストテキストテキストテキストテキストテキストテキストテキストテキストテキストテキストテキスト"
        },
        {
            "date": "2021.05.21",
            "time": "23:25",
            "content": "私の日記の記録が一部表示されます。テキストテキストテキストテキストテキストテキストテキストテキストテキストテキストテキストテキストテキストテキストテキストテキストテキストテキスト"
        },
        {
            "date": "2021.05.21",
            "time": "23:25",
            "content": "私の日記の記録が一部表示されます。テキストテキストテキストテキストテキストテキストテキストテキストテキストテキストテキストテキストテキストテキストテキストテキストテキストテキスト"
        },
        {
            "date": "2021.05.21",
            "time": "23:25",
            "content": "私の日記の記録が一部表示されます。テキストテキストテキストテキストテキストテキストテキストテキストテキストテキストテキストテキストテキストテキストテキストテキストテキストテキスト"
        },
        {
            "date": "2021.05.21",
            "time": "23:25",
            "content": "私の日記の記録が一部表示されます。テキストテキストテキストテキストテキストテキストテキストテキストテキストテキストテキストテキストテキストテキストテキストテキストテキストテキスト"
        }
    ],
    "my-column": [
        {
            "content": "魚を食べて頭もカラダも元気に！知っておきたい魚を食べるメリ",
            "date": "2021.05.21",
            "time": "23.25",
            "image": "/images/column-1.png",
            "tags": [
                "魚料理",
                "和食",
                "DHA"
            ]
        },
        {
            "content": "魚を食べて頭もカラダも元気に！知っておきたい魚を食べるメリ",
            "date": "2021.05.21",
            "time": "23.25",
            "image": "/images/column-2.png",
            "tags": [
                "魚料理",
                "和食",
                "DHA"
            ]
        },
        {
            "content": "魚を食べて頭もカラダも元気に！知っておきたい魚を食べるメリ",
            "date": "2021.05.21",
            "time": "23.25",
            "image": "/images/column-3.png",
            "tags": [
                "魚料理",
                "和食",
                "DHA"
            ]
        },
        {
            "content": "魚を食べて頭もカラダも元気に！知っておきたい魚を食べるメリ",
            "date": "2021.05.21",
            "time": "23.25",
            "image": "/images/column-4.png",
            "tags": [
                "魚料理",
                "和食",
                "DHA"
            ]
        },
        {
            "content": "魚を食べて頭もカラダも元気に！知っておきたい魚を食べるメリ",
            "date": "2021.05.21",
            "time": "23.25",
            "image": "/images/column-5.png",
            "tags": [
                "魚料理",
                "和食",
                "DHA"
            ]
        },
        {
            "content": "魚を食べて頭もカラダも元気に！知っておきたい魚を食べるメリ",
            "date": "2021.05.21",
            "time": "23.25",
            "image": "/images/column-6.png",
            "tags": [
                "魚料理",
                "和食",
                "DHA"
            ]
        },
        {
            "content": "魚を食べて頭もカラダも元気に！知っておきたい魚を食べるメリ",
            "date": "2021.05.21",
            "time": "23.25",
            "image": "/images/column-7.png",
            "tags": [
                "魚料理",
                "和食",
                "DHA"
            ]
        },
        {
            "content": "魚を食べて頭もカラダも元気に！知っておきたい魚を食べるメリ",
            "date": "2021.05.21",
            "time": "23.25",
            "image": "/images/column-8.png",
            "tags": [
                "魚料理",
                "和食",
                "DHA"
            ]
        },
        {
            "content": "魚を食べて頭もカラダも元気に！知っておきたい魚を食べるメリ",
            "date": "2021.05.21",
            "time": "23.25",
            "image": "/images/column-1.png",
            "tags": [
                "魚料理",
                "和食",
                "DHA"
            ]
        },
        {
            "content": "魚を食べて頭もカラダも元気に！知っておきたい魚を食べるメリ",
            "date": "2021.05.21",
            "time": "23.25",
            "image": "/images/column-2.png",
            "tags": [
                "魚料理",
                "和食",
                "DHA"
            ]
        },
        {
            "content": "魚を食べて頭もカラダも元気に！知っておきたい魚を食べるメリ",
            "date": "2021.05.21",
            "time": "23.25",
            "image": "/images/column-3.png",
            "tags": [
                "魚料理",
                "和食",
                "DHA"
            ]
        },
        {
            "content": "魚を食べて頭もカラダも元気に！知っておきたい魚を食べるメリ",
            "date": "2021.05.21",
            "time": "23.25",
            "image": "/images/column-4.png",
            "tags": [
                "魚料理",
                "和食",
                "DHA"
            ]
        },
        {
            "content": "魚を食べて頭もカラダも元気に！知っておきたい魚を食べるメリ",
            "date": "2021.05.21",
            "time": "23.25",
            "image": "/images/column-5.png",
            "tags": [
                "魚料理",
                "和食",
                "DHA"
            ]
        },
        {
            "content": "魚を食べて頭もカラダも元気に！知っておきたい魚を食べるメリ",
            "date": "2021.05.21",
            "time": "23.25",
            "image": "/images/column-6.png",
            "tags": [
                "魚料理",
                "和食",
                "DHA"
            ]
        },
        {
            "content": "魚を食べて頭もカラダも元気に！知っておきたい魚を食べるメリ",
            "date": "2021.05.21",
            "time": "23.25",
            "image": "/images/column-7.png",
            "tags": [
                "魚料理",
                "和食",
                "DHA"
            ]
        },
        {
            "content": "魚を食べて頭もカラダも元気に！知っておきたい魚を食べるメリ",
            "date": "2021.05.21",
            "time": "23.25",
            "image": "/images/column-8.png",
            "tags": [
                "魚料理",
                "和食",
                "DHA"
            ]
        },
        {
            "content": "魚を食べて頭もカラダも元気に！知っておきたい魚を食べるメリ",
            "date": "2021.05.21",
            "time": "23.25",
            "image": "/images/column-1.png",
            "tags": [
                "魚料理",
                "和食",
                "DHA"
            ]
        },
        {
            "content": "魚を食べて頭もカラダも元気に！知っておきたい魚を食べるメリ",
            "date": "2021.05.21",
            "time": "23.25",
            "image": "/images/column-2.png",
            "tags": [
                "魚料理",
                "和食",
                "DHA"
            ]
        },
        {
            "content": "魚を食べて頭もカラダも元気に！知っておきたい魚を食べるメリ",
            "date": "2021.05.21",
            "time": "23.25",
            "image": "/images/column-3.png",
            "tags": [
                "魚料理",
                "和食",
                "DHA"
            ]
        },
        {
            "content": "魚を食べて頭もカラダも元気に！知っておきたい魚を食べるメリ",
            "date": "2021.05.21",
            "time": "23.25",
            "image": "/images/column-4.png",
            "tags": [
                "魚料理",
                "和食",
                "DHA"
            ]
        },
        {
            "content": "魚を食べて頭もカラダも元気に！知っておきたい魚を食べるメリ",
            "date": "2021.05.21",
            "time": "23.25",
            "image": "/images/column-5.png",
            "tags": [
                "魚料理",
                "和食",
                "DHA"
            ]
        },
        {
            "content": "魚を食べて頭もカラダも元気に！知っておきたい魚を食べるメリ",
            "date": "2021.05.21",
            "time": "23.25",
            "image": "/images/column-6.png",
            "tags": [
                "魚料理",
                "和食",
                "DHA"
            ]
        },
        {
            "content": "魚を食べて頭もカラダも元気に！知っておきたい魚を食べるメリ",
            "date": "2021.05.21",
            "time": "23.25",
            "image": "/images/column-7.png",
            "tags": [
                "魚料理",
                "和食",
                "DHA"
            ]
        },
        {
            "content": "魚を食べて頭もカラダも元気に！知っておきたい魚を食べるメリ",
            "date": "2021.05.21",
            "time": "23.25",
            "image": "/images/column-8.png",
            "tags": [
                "魚料理",
                "和食",
                "DHA"
            ]
        },
        {
            "content": "魚を食べて頭もカラダも元気に！知っておきたい魚を食べるメリ",
            "date": "2021.05.21",
            "time": "23.25",
            "image": "/images/column-1.png",
            "tags": [
                "魚料理",
                "和食",
                "DHA"
            ]
        },
        {
            "content": "魚を食べて頭もカラダも元気に！知っておきたい魚を食べるメリ",
            "date": "2021.05.21",
            "time": "23.25",
            "image": "/images/column-2.png",
            "tags": [
                "魚料理",
                "和食",
                "DHA"
            ]
        },
        {
            "content": "魚を食べて頭もカラダも元気に！知っておきたい魚を食べるメリ",
            "date": "2021.05.21",
            "time": "23.25",
            "image": "/images/column-3.png",
            "tags": [
                "魚料理",
                "和食",
                "DHA"
            ]
        },
        {
            "content": "魚を食べて頭もカラダも元気に！知っておきたい魚を食べるメリ",
            "date": "2021.05.21",
            "time": "23.25",
            "image": "/images/column-4.png",
            "tags": [
                "魚料理",
                "和食",
                "DHA"
            ]
        },
        {
            "content": "魚を食べて頭もカラダも元気に！知っておきたい魚を食べるメリ",
            "date": "2021.05.21",
            "time": "23.25",
            "image": "/images/column-5.png",
            "tags": [
                "魚料理",
                "和食",
                "DHA"
            ]
        },
        {
            "content": "魚を食べて頭もカラダも元気に！知っておきたい魚を食べるメリ",
            "date": "2021.05.21",
            "time": "23.25",
            "image": "/images/column-6.png",
            "tags": [
                "魚料理",
                "和食",
                "DHA"
            ]
        },
        {
            "content": "魚を食べて頭もカラダも元気に！知っておきたい魚を食べるメリ",
            "date": "2021.05.21",
            "time": "23.25",
            "image": "/images/column-7.png",
            "tags": [
                "魚料理",
                "和食",
                "DHA"
            ]
        },
        {
            "content": "魚を食べて頭もカラダも元気に！知っておきたい魚を食べるメリ",
            "date": "2021.05.21",
            "time": "23.25",
            "image": "/images/column-8.png",
            "tags": [
                "魚料理",
                "和食",
                "DHA"
            ]
        },
        {
            "content": "魚を食べて頭もカラダも元気に！知っておきたい魚を食べるメリ",
            "date": "2021.05.21",
            "time": "23.25",
            "image": "/images/column-1.png",
            "tags": [
                "魚料理",
                "和食",
                "DHA"
            ]
        },
        {
            "content": "魚を食べて頭もカラダも元気に！知っておきたい魚を食べるメリ",
            "date": "2021.05.21",
            "time": "23.25",
            "image": "/images/column-2.png",
            "tags": [
                "魚料理",
                "和食",
                "DHA"
            ]
        },
        {
            "content": "魚を食べて頭もカラダも元気に！知っておきたい魚を食べるメリ",
            "date": "2021.05.21",
            "time": "23.25",
            "image": "/images/column-3.png",
            "tags": [
                "魚料理",
                "和食",
                "DHA"
            ]
        },
        {
            "content": "魚を食べて頭もカラダも元気に！知っておきたい魚を食べるメリ",
            "date": "2021.05.21",
            "time": "23.25",
            "image": "/images/column-4.png",
            "tags": [
                "魚料理",
                "和食",
                "DHA"
            ]
        },
        {
            "content": "魚を食べて頭もカラダも元気に！知っておきたい魚を食べるメリ",
            "date": "2021.05.21",
            "time": "23.25",
            "image": "/images/column-5.png",
            "tags": [
                "魚料理",
                "和食",
                "DHA"
            ]
        },
        {
            "content": "魚を食べて頭もカラダも元気に！知っておきたい魚を食べるメリ",
            "date": "2021.05.21",
            "time": "23.25",
            "image": "/images/column-6.png",
            "tags": [
                "魚料理",
                "和食",
                "DHA"
            ]
        },
        {
            "content": "魚を食べて頭もカラダも元気に！知っておきたい魚を食べるメリ",
            "date": "2021.05.21",
            "time": "23.25",
            "image": "/images/column-7.png",
            "tags": [
                "魚料理",
                "和食",
                "DHA"
            ]
        },
        {
            "content": "魚を食べて頭もカラダも元気に！知っておきたい魚を食べるメリ",
            "date": "2021.05.21",
            "time": "23.25",
            "image": "/images/column-8.png",
            "tags": [
                "魚料理",
                "和食",
                "DHA"
            ]
        }
    ]
}